"Comment","Designator","Footprint","LCSC"
"EDS03SGNNTR04Q","S1","SMD","C319040"
"FT2232D","U2","LQFP-48","C428116"
"0.1uF","C4, C5, C6, C7, C8, C9","0603 (1608 metric)","C14663"
"27","R8, R9, R12, R13, R15, R16, R17, R18, R19","0603 (1608 metric)","C25190"
"1k5","R7, R10","0603 (1608 metric)","C22843"
"1k","R1, R2, R11","0603 (1608 metric)","C21190"
"18pF","C10, C11","0603 (1608 metric)","C107040"
"10k","R6","0603 (1608 metric)","C25804"
"270","R14","0603 (1608 metric)","C22966"
"XC6210B332MR","U1","SOT23-5","C424705"
"4.7uF","C1, C2","0603 (1608 metric)","C162274"
"M93C46","U3","SOIC-8","C7565"
"6MHz","Q1","7X5 SMD","C179631"
"GREEN","LED1","0603 (1608 metric)","C84264"
"BLUE","LED2","0603 (1608 metric)","C84266"
